403495 343073 441
646635 378597 509
39856 364056 443
815628 883287 525
936631 172133 525
632716 532617 509
716779 422656 509
282667 177919 443
82304 928089 525
788208 619327 509
676003 337550 509
390947 630852 509
466139 773126 509
777628 161356 509
529289 675216 509
208771 570786 470
996159 997530 352
994267 191213 525
930451 753195 525
515863 32801 470
317018 746739 509
238938 3792 443
911210 656022 525
475520 811645 509
884449 857625 432
724672 11731 509
920056 234006 525
272593 204506 443
982583 617723 525
633913 759830 504
700059 815741 504
900768 833789 525
816641 363302 509
954696 734365 525
728826 743661 424
541485 747977 509
113661 439570 449
89584 429210 449
392998 286035 441
703951 515238 509
163667 636482 509
606718 223580 470
537724 325529 470
602207 159743 470
877298 95319 525
442970 661741 509
888266 620503 525
593805 480158 470
39593 341978 443
418054 663559 509
231452 236636 381
184325 520438 470
514801 754296 509
262908 290906 407
779789 307947 509
913337 573515 525
335019 276305 389
247767 765815 509
673624 663971 442
6152 468401 449
306613 637934 509
934301 360354 525
251644 499565 449
738997 846555 525
913494 678470 525
182387 479605 449
991262 418672 525
607569 312223 470
350700 366393 410
967054 856128 507
552305 645265 509
780138 132683 509
449896 156184 449
40406 872545 525
476924 907325 525
572568 793057 509
31495 777280 509
806364 111021 509
929417 975384 507
16524 246957 443
429136 1956 449
846074 764994 525
169335 196427 365
352384 492961 449
351018 422762 449
170394 540793 470
741078 351638 509
1139 771765 509
366156 974221 525
491210 822202 509
589341 635781 509
594935 316364 470
401266 173501 443
612141 81784 470
319020 733237 509
367015 664593 509
724397 388078 509
611497 997323 525
451651 724286 509
132013 570907 470
294830 277046 389
298493 179488 443
293001 116216 443
770626 68138 509
677831 521416 509
786157 646868 504
283567 529561 470
485196 507442 426
648733 436405 509
282077 45661 443
679471 727384 504
542218 294414 470
132045 563840 470
981607 195736 525
827809 453943 509
974149 53228 525
247606 252166 350
231382 357862 441
729227 18365 509
692846 931579 525
523921 969752 525
466966 887169 525
662115 443415 509
553857 327310 470
186088 835528 509
485394 469326 413
722673 121281 509
983860 122336 525
696539 980514 525
128243 340443 443
726310 277030 509
909531 159617 525
357640 675968 509
300277 415684 449
685100 762156 504
321477 791872 509
260290 271809 407
676997 428890 509
924917 745232 525
441457 268445 449
670313 820180 504
857924 511400 525
502906 359922 449
769943 535313 509
28973 167334 383
192959 340528 443
378650 487201 449
301844 151301 443
473977 49959 449
402434 102568 443
899222 938147 476
16617 775327 509
584107 905118 525
444977 547890 470
202133 772147 509
679677 166990 509
596365 813845 509
152906 583610 470
525433 753183 509
481247 726082 509
363016 665741 509
577988 527485 452
651148 533937 509
695454 772653 504
233424 151923 443
560614 752935 509
418646 534341 470
344372 90833 443
926063 761340 525
899098 230606 525
1117 272183 443
229024 130769 386
530946 447407 470
392079 770498 509
677963 335545 509
239359 557550 470
495680 572164 470
149917 986646 525
257387 228539 443
289384 325560 384
419118 979353 525
954904 19603 525
197031 824763 509
626851 177169 509
111839 508021 449
683290 489295 509
103228 797178 509
892363 466075 525
777733 451125 509
732441 361383 509
243017 852449 525
289913 755605 509
79375 38815 351
291050 72419 443
364548 158697 443
414290 354800 449
267722 72475 443
403104 33463 443
802067 575967 509
789005 232062 509
495489 220954 449
640277 618185 509
474839 44421 449
439351 65621 449
842011 362831 525
561752 901889 525
219043 481871 449
232423 736455 509
506324 106102 449
987897 171967 525
737101 208805 509
477975 246130 449
740828 277555 509
16043 928495 525
162539 240510 443
812883 3644 509
555499 312907 470
439928 112940 449
41321 259791 443
674662 36934 509
292455 111633 443
96161 598253 470
598513 972406 525
937922 514655 525
21953 95108 351
298767 565370 470
85678 723984 509
592277 231890 470
256821 772386 509
944043 645913 525
991078 756679 525
162984 735301 509
772415 986759 525
699124 336381 509
288191 855507 525
135601 552892 470
214826 393778 443
578536 610935 434
354613 348485 379
645977 233264 509
609469 516684 452
599503 632253 509
823924 704722 468
567620 103700 470
354385 780875 509
701372 41030 509
220877 303961 443
515609 230090 470
111754 935228 525
900028 212198 525
