62584 948180 525
892814 822910 525
598142 695741 509
201517 980164 525
255763 488782 449
521217 906306 525
958171 372557 525
444846 559322 470
28953 270032 443
92401 834537 509
344864 148185 443
449713 862643 525
890911 74977 525
937229 460275 525
965665 429018 525
393621 399598 405
335293 248471 407
234647 938906 525
511639 608205 470
730405 882365 525
491332 752810 509
378546 860634 525
494535 409604 449
587046 487059 470
402211 676437 509
753174 929848 525
734351 298080 509
840559 702018 525
158622 170510 370
366246 118824 443
735581 355607 509
75892 917875 525
567203 734699 509
784297 664019 504
11802 385068 443
501254 894003 525
559158 365527 470
149613 528468 470
421420 402766 449
266694 734649 509
29241 893323 525
488509 845477 525
876867 728331 525
360763 436554 449
379035 911065 525
183567 182933 254
283578 267089 407
766484 378491 509
575990 719298 509
732476 365491 509
529439 123162 470
519985 26245 470
411037 521866 470
99607 549729 470
196038 529188 470
653262 330389 509
441206 839561 525
379829 930295 525
67431 670955 509
613928 618216 447
816699 329823 509
832141 901631 525
252389 324072 407
679173 517999 509
103416 690857 509
718014 692635 504
595460 762610 509
684859 183222 509
356361 930769 525
195061 893689 525
239680 439877 449
413881 864491 525
734572 248027 509
950547 656865 525
907466 172101 525
666508 147399 509
148594 973562 525
463917 728596 509
704703 30221 509
769386 363348 509
605293 958586 525
55279 207984 383
849477 497564 525
192882 528886 470
320817 501331 449
428967 623810 470
990292 263877 525
571896 97310 470
991383 8713 525
222863 72586 386
254335 400815 441
603500 236796 470
673169 901051 525
401212 720509 509
835360 594761 509
90353 800952 509
816380 140663 509
729335 274448 509
335133 448874 449
790030 162068 509
474780 510638 426
37600 311476 443
17947 764610 509
195360 315539 443
894866 121712 525
363089 722911 509
517504 982306 525
188468 355432 443
732426 253266 509
372742 157645 443
811593 990424 525
29837 334754 443
791468 600852 509
236360 710220 509
661889 930311 525
465127 401646 449
568103 503598 470
102277 98345 341
798589 143682 509
424758 415978 418
723831 590839 509
823199 589552 509
374299 383350 423
105536 236271 443
722060 635797 504
517798 374351 470
750448 414803 509
556669 103817 470
595241 707381 509
345537 112599 443
253045 607120 470
530148 839126 525
883397 741726 525
978489 477057 525
207802 744178 509
59761 177192 383
164533 687491 509
169405 286359 443
230295 184280 386
872843 456990 525
741966 721061 424
47348 96650 351
709507 987860 525
31421 790443 509
201418 100066 383
411919 232788 449
352526 831374 509
227993 969244 525
891412 991514 507
336690 93227 443
616143 848207 525
405654 338733 441
65573 906399 525
195336 293752 443
813708 804371 406
261593 202011 443
60348 767836 509
837313 279744 509
961353 303486 525
963668 729411 525
689493 27241 509
729917 898355 525
739828 256073 509
79554 474759 449
750881 382765 509
660213 963203 525
60447 629783 509
244151 806460 509
301485 515427 470
340116 307195 384
570372 818267 509
160679 269578 443
978615 174322 525
511441 101895 449
504027 947014 525
669509 88096 509
544695 536501 408
96558 363805 443
278276 883977 525
14338 246480 443
394652 532639 470
984198 506519 525
207660 786389 509
779473 453019 509
289702 778876 509
267158 58218 443
782774 456170 509
801973 746799 468
702878 971766 525
679935 685607 380
380652 310380 441
47199 266800 443
716809 526470 509
857374 465240 525
607025 436136 470
219116 492183 449
824305 343619 509
844999 593177 525
922968 744350 525
332228 602003 470
40882 952776 525
487232 907731 525
612529 156316 470
848052 186782 525
8190 500445 449
84427 659411 509
82016 435255 449
419915 241736 449
777850 608998 509
665153 868243 525
722814 744263 424
484883 66933 449
427669 174635 449
979602 792579 525
856597 957734 507
